Chapter 6 US cumulative cases | United States Covid Project
…
## # A tibble: 10 x 4
##     time valueA valueB valueC
##    <dbl>  <dbl>  <dbl>  <dbl>
##  1     1      2      5     13
##  2     2      3      4     14
##  3     3      1      4     16
##  4     4      7      4     12
##  5     5      8      8      7
##  6     6      8     13      9
##  7     7      5     15      3
##  8     8      4     17      2
##  9     9      9     18      1
## 10    10     11     13      1

## # A tibble: 689 x 6
##    date       California Florida `New York` Pennsylvania Texas
##    <date>          <dbl>   <dbl>      <dbl>        <dbl> <dbl>
##  1 2020-01-22          0       0          0            0     0
##  2 2020-01-23          0       0          0            0     0
##  3 2020-01-24          0       0          0            0     0
##  4 2020-01-25          0       0          0            0     0
##  5 2020-01-26          2       0          0            0     0
##  6 2020-01-27          0       0          0            0     0
##  7 2020-01-28          0       0          0            0     0
##  8 2020-01-29          0       0          0            0     0
##  9 2020-01-30          0       0          0            0     0
## 10 2020-01-31          1       0          0            0     0
## # ... with 679 more rows
